<?xml version="1.0" encoding="utf-8"?>
<!-- Generator: Adobe Illustrator 16.0.4, SVG Export Plug-In . SVG Version: 6.00 Build 0)  -->
<!DOCTYPE svg PUBLIC "-//W3C//DTD SVG 1.1//EN" "http://www.w3.org/Graphics/SVG/1.1/DTD/svg11.dtd">
<svg version="1.1" id="Layer_1" xmlns="http://www.w3.org/2000/svg" xmlns:xlink="http://www.w3.org/1999/xlink" x="0px" y="0px"
	 width="160.18px" height="51.477px" viewBox="0 0 160.18 51.477" enable-background="new 0 0 160.18 51.477" xml:space="preserve">
<path fill-rule="evenodd" clip-rule="evenodd" fill="#2A6496" d="M129.689,46.743c-0.004,0-0.005-0.003-0.014,0H32.761
	c-0.271,0-0.515-0.158-0.628-0.403c-0.112-0.244-0.069-0.535,0.106-0.738l8.58-9.922c0.13-0.151,0.322-0.239,0.522-0.239
	c0.201,0,0.391,0.088,0.52,0.237l2.298,2.651l10.818-12.512c0.131-0.15,0.321-0.238,0.522-0.238l0,0c0.2,0,0.392,0.087,0.523,0.24
	l5.668,6.579l19.006-22.021c0.262-0.303,0.782-0.303,1.046,0l19.001,22.021l5.675-6.579c0.131-0.153,0.321-0.24,0.521-0.24
	c0.001,0,0.001,0,0.001,0c0.2,0,0.391,0.087,0.521,0.238l10.816,12.512l2.297-2.651c0.132-0.149,0.32-0.237,0.522-0.237l0,0
	c0.199,0,0.392,0.088,0.521,0.239l8.506,9.837c0.156,0.127,0.257,0.32,0.257,0.538C130.381,46.434,130.072,46.743,129.689,46.743
	L129.689,46.743z M36.579,42.692l4.604-3.654c0.092-0.073,0.223-0.073,0.318,0l2.662,2.117l11.177-8.87
	c0.093-0.073,0.225-0.073,0.319,0l6.032,4.795l19.369-15.375c0.094-0.076,0.226-0.076,0.32,0l19.364,15.375l6.037-4.795
	c0.091-0.073,0.226-0.073,0.318,0l11.179,8.87l2.659-2.117c0.095-0.073,0.228-0.073,0.32,0l4.604,3.658l-4.765-5.511l-2.297,2.65
	c-0.132,0.15-0.321,0.238-0.522,0.238l0,0c-0.199,0-0.392-0.088-0.521-0.24L106.94,27.325l-5.672,6.581
	c-0.263,0.302-0.782,0.302-1.045,0L81.219,11.885L62.213,33.906c-0.13,0.15-0.32,0.237-0.523,0.237l0,0
	c-0.199,0-0.39-0.087-0.52-0.237l-5.671-6.581L44.68,39.833c-0.13,0.152-0.32,0.24-0.519,0.24c-0.204,0-0.392-0.088-0.523-0.238
	l-2.298-2.65L36.579,42.692z"/>
<g>
	<line fill="#2A6496" x1="1.007" y1="50.512" x2="159.104" y2="50.512"/>
	<path fill="#2A6496" d="M159.104,50.895H1.007c-0.213,0-0.384-0.172-0.384-0.383c0-0.213,0.171-0.384,0.384-0.384h158.098
		c0.213,0,0.384,0.171,0.384,0.384C159.488,50.723,159.317,50.895,159.104,50.895z"/>
</g>
</svg>
