<?xml version="1.0" encoding="utf-8"?>
<!-- Generator: Adobe Illustrator 16.0.4, SVG Export Plug-In . SVG Version: 6.00 Build 0)  -->
<!DOCTYPE svg PUBLIC "-//W3C//DTD SVG 1.1//EN" "http://www.w3.org/Graphics/SVG/1.1/DTD/svg11.dtd">
<svg version="1.1" id="Layer_1" xmlns="http://www.w3.org/2000/svg" xmlns:xlink="http://www.w3.org/1999/xlink" x="0px" y="0px"
	 width="88px" height="47.781px" viewBox="0 0 88 47.781" enable-background="new 0 0 88 47.781" xml:space="preserve">
<g>
	<path fill-rule="evenodd" clip-rule="evenodd" fill="#2A6496" d="M22.858,47.733l6.082-6.003l-4.038-2.114l6.376-5.319
		c0.286,0.338,0.581,0.666,0.901,0.978c1.005,1.007,2.114,1.855,3.283,2.54l-3.639,1.846l4.037,2.112L22.858,47.733z"/>
	<path fill-rule="evenodd" clip-rule="evenodd" fill="#2A6496" d="M55.025,12.431c-1.005-1.006-2.106-1.846-3.283-2.531l3.647-1.854
		l-4.046-2.105L64.348-0.02l-6.082,6.004l4.046,2.105l-6.377,5.319C55.648,13.08,55.346,12.75,55.025,12.431z"/>
</g>
<path fill-rule="evenodd" clip-rule="evenodd" fill="#2A6496" d="M31.868,32.685c-4.869-6.479-3.569-15.688,2.902-20.566
	c6.48-4.877,15.698-3.569,20.568,2.902c4.877,6.481,3.577,15.699-2.903,20.568C45.955,40.465,36.745,39.165,31.868,32.685z
	 M47.662,37.155l0.554-0.164c1.309-0.469,2.573-1.143,3.752-2.028c1.168-0.883,2.174-1.914,2.987-3.049l0.312-0.485L47.662,37.155z
	 M47.393,36.332l0.528-0.164c1.229-0.442,2.417-1.074,3.526-1.898c1.1-0.831,2.036-1.801,2.798-2.857l0.295-0.459L47.393,36.332z
	 M47.133,35.5l0.492-0.146c1.153-0.417,2.262-1.007,3.294-1.777c1.031-0.779,1.905-1.681,2.625-2.678l0.276-0.433L47.133,35.5z
	 M46.872,34.669l0.459-0.139c1.075-0.382,2.106-0.937,3.067-1.654c0.953-0.719,1.768-1.56,2.435-2.486l0.26-0.399L46.872,34.669z
	 M46.612,33.837l0.425-0.13c0.996-0.347,1.95-0.856,2.833-1.524c0.892-0.668,1.638-1.447,2.253-2.296l0.242-0.381L46.612,33.837z
	 M46.354,33.015l0.389-0.121c0.92-0.33,1.794-0.797,2.608-1.403c0.814-0.615,1.507-1.327,2.07-2.115l0.227-0.346L46.354,33.015z
	 M46.093,32.183l0.364-0.113c0.831-0.294,1.628-0.719,2.365-1.281c0.745-0.555,1.378-1.204,1.889-1.923l0.208-0.321L46.093,32.183z
	 M45.833,31.351l0.329-0.094c0.746-0.27,1.473-0.66,2.141-1.162c0.667-0.503,1.238-1.092,1.705-1.74l0.183-0.287L45.833,31.351z
	 M45.564,30.502l0.962-0.347c0.433-0.198,0.857-0.459,1.256-0.753c0.398-0.304,0.754-0.633,1.073-0.997l0.599-0.831L45.564,30.502z
	 M45.306,29.679l0.849-0.304c0.381-0.182,0.754-0.406,1.1-0.676c0.354-0.259,0.667-0.555,0.945-0.865l0.527-0.737L45.306,29.679z
	 M46.336,27.479c2.001-1.507,2.408-4.349,0.9-6.351c-1.508-2.009-4.357-2.408-6.359-0.9c-2.001,1.507-2.408,4.357-0.901,6.359
	C41.484,28.588,44.334,28.986,46.336,27.479z M42.767,24.48c-0.347-0.458-0.251-1.117,0.208-1.463
	c0.459-0.347,1.118-0.251,1.463,0.208c0.355,0.459,0.261,1.117-0.207,1.465C43.771,25.035,43.113,24.948,42.767,24.48z
	 M38.478,20.608l3.431-2.581l-0.857,0.302c-0.381,0.182-0.745,0.407-1.1,0.667c-0.346,0.268-0.667,0.555-0.945,0.875L38.478,20.608z
	 M37.75,20.132l3.898-2.929l-0.97,0.338c-0.433,0.208-0.85,0.459-1.248,0.762s-0.762,0.633-1.083,0.997L37.75,20.132z
	 M37.014,19.638l4.366-3.283l-0.329,0.096c-0.754,0.268-1.473,0.649-2.148,1.161c-0.667,0.501-1.239,1.091-1.707,1.732
	L37.014,19.638z M36.286,19.153l4.834-3.63l-0.363,0.104c-0.833,0.303-1.638,0.728-2.374,1.283
	c-0.745,0.562-1.377,1.212-1.889,1.932L36.286,19.153z M35.559,18.677l5.293-3.985l-0.39,0.122c-0.91,0.319-1.793,0.787-2.607,1.402
	c-0.815,0.615-1.499,1.326-2.071,2.114L35.559,18.677z M34.839,18.191l5.752-4.332l-0.424,0.13
	c-0.997,0.355-1.949,0.867-2.833,1.534c-0.884,0.667-1.638,1.447-2.252,2.295L34.839,18.191z M34.111,17.715l6.221-4.679
	l-0.459,0.139c-1.075,0.381-2.105,0.927-3.058,1.654c-0.962,0.719-1.776,1.56-2.443,2.478L34.111,17.715z M33.384,17.229
	l6.688-5.024l-0.494,0.147c-1.152,0.416-2.261,1.005-3.292,1.777c-1.031,0.779-1.906,1.68-2.616,2.676L33.384,17.229z
	 M32.665,16.753l7.147-5.38l-0.52,0.156c-1.239,0.442-2.426,1.074-3.526,1.906c-1.109,0.831-2.045,1.793-2.807,2.859L32.665,16.753z
	 M31.937,16.268l7.615-5.727l-0.554,0.174c-1.317,0.467-2.582,1.143-3.76,2.027c-1.169,0.884-2.166,1.915-2.989,3.04L31.937,16.268z
	"/>
<path fill="#2A6496" d="M26.806,27.463c0.174,0.688,0.289,0.853,0.732,0.968v1.785h-4.374v-1.785
	c0.423-0.017,0.675-0.181,0.675-0.508c0-0.05-0.02-0.066-0.059-0.264l-0.019-0.064l-0.096-0.459H21.18l-0.116,0.459
	c-0.019,0.099-0.039,0.262-0.039,0.344c0,0.312,0.25,0.476,0.713,0.492v1.785h-3.931v-1.785c0.424-0.115,0.578-0.328,0.752-1.049
	l1.869-8.094h4.412L26.806,27.463z M22.355,21.975l-0.829,3.587h1.753L22.355,21.975z"/>
<path fill="#2A6496" d="M63.759,28.431c0.501-0.115,0.674-0.328,0.674-0.869v-0.213v-6.013c-0.828,0.033-1.155,0.394-1.155,1.278
	v1.115h-2.408v-4.44h10.058v4.44h-2.389v-1.115c0-0.884-0.348-1.245-1.156-1.278v6.013v0.213c0,0.558,0.153,0.754,0.674,0.869v1.785
	h-4.297V28.431z"/>
</svg>
