<?xml version="1.0" encoding="utf-8"?>
<!-- Generator: Adobe Illustrator 16.0.4, SVG Export Plug-In . SVG Version: 6.00 Build 0)  -->
<!DOCTYPE svg PUBLIC "-//W3C//DTD SVG 1.1//EN" "http://www.w3.org/Graphics/SVG/1.1/DTD/svg11.dtd">
<svg version="1.1" id="Layer_1" xmlns="http://www.w3.org/2000/svg" xmlns:xlink="http://www.w3.org/1999/xlink" x="0px" y="0px"
	 width="295px" height="46.307px" viewBox="-0.001 0 295 46.307" enable-background="new -0.001 0 295 46.307" xml:space="preserve"
	>
<path fill="#2A6496" d="M278.326,0H147.499H16.667v3.312h37.854L32.958,16.885c-5.349,3.369-9.183,2.89-13.654-0.521
	c-0.642-0.493-1.432-0.532-2.107-0.106L0.984,26.462c-0.599,0.375-0.946,1.002-0.982,1.751c-0.034,0.746,0.259,1.409,0.818,1.848
	c1.041,0.81,2.148,1.514,3.327,2.096c0.913,0.447,1.839,0.813,2.796,1.099L3.635,35.34c-0.945,0.591-1.264,1.914-0.721,2.938
	c0.541,1.028,1.759,1.386,2.696,0.79l3.309-2.082c-0.249,1.045-0.421,2.109-0.52,3.187c-0.128,1.408-0.123,2.808,0.003,4.189
	c0.064,0.746,0.444,1.359,1.056,1.695c0.613,0.346,1.287,0.328,1.881-0.043l16.215-10.206c0.677-0.428,1.037-1.192,0.972-2.041
	c-0.477-5.93,1.063-9.785,6.409-13.155l27.492-17.3h85.071h85.073l27.483,17.302c5.356,3.371,6.889,7.226,6.418,13.155
	c-0.075,0.85,0.298,1.614,0.97,2.04l16.211,10.208c0.598,0.371,1.275,0.388,1.887,0.042c0.611-0.336,0.988-0.949,1.054-1.695
	c0.133-1.383,0.138-2.78,0.005-4.189c-0.102-1.077-0.27-2.144-0.521-3.187l3.305,2.083c0.939,0.593,2.159,0.237,2.697-0.792
	c0.547-1.022,0.218-2.345-0.724-2.937l-3.307-2.087c0.957-0.285,1.884-0.648,2.79-1.099c1.183-0.58,2.287-1.286,3.335-2.096
	c0.561-0.436,0.854-1.102,0.821-1.848c-0.038-0.749-0.388-1.376-0.989-1.749L277.8,16.259c-0.677-0.426-1.468-0.387-2.107,0.106
	c-4.474,3.41-8.307,3.891-13.663,0.521L240.47,3.315h37.858V0H278.326z"/>
</svg>
