<?xml version="1.0" encoding="utf-8"?>
<!-- Generator: Adobe Illustrator 16.0.4, SVG Export Plug-In . SVG Version: 6.00 Build 0)  -->
<!DOCTYPE svg PUBLIC "-//W3C//DTD SVG 1.1//EN" "http://www.w3.org/Graphics/SVG/1.1/DTD/svg11.dtd">
<svg version="1.1" id="Layer_1" xmlns="http://www.w3.org/2000/svg" xmlns:xlink="http://www.w3.org/1999/xlink" x="0px" y="0px"
	 width="160.18px" height="51.477px" viewBox="0 0 160.18 51.477" enable-background="new 0 0 160.18 51.477" xml:space="preserve">
<path fill="#2A6496" d="M114.977,50.587l14.771-8.528c0.303-0.174,0.404-0.55,0.229-0.854c-0.171-0.293-0.548-0.394-0.841-0.219
	l-15.379,8.876l-3.188-2.448l8.889-6.832c0.276-0.202,0.332-0.595,0.121-0.861c-0.213-0.274-0.598-0.33-0.872-0.119l-9.153,7.023
	l-2.943-2.256l11.482-11.479c0.237-0.249,0.237-0.632,0-0.881c-0.247-0.238-0.641-0.238-0.879,0l-11.593,11.6l-2.824-2.173
	l7.707-10.042c0.211-0.274,0.158-0.659-0.117-0.871c-0.269-0.21-0.66-0.154-0.864,0.121l-7.707,10.039l-2.823-2.174l8.194-14.211
	c0.175-0.294,0.073-0.668-0.228-0.843c-0.293-0.166-0.67-0.065-0.847,0.229l-8.109,14.064l-2.94-2.265l4.408-10.654
	c0.136-0.311-0.021-0.678-0.331-0.807c-0.321-0.129-0.68,0.028-0.813,0.339l-4.282,10.343l-3.198-2.456l4.6-17.175
	c0.093-0.33-0.109-0.669-0.439-0.761c-0.329-0.083-0.669,0.109-0.761,0.441l-4.462,16.678l-3.621-2.788l0.963-7.288
	c0.037-0.339-0.2-0.651-0.54-0.697c-0.34-0.037-0.652,0.201-0.688,0.54l-0.869,6.575l-4.317-3.329V2
	c0-0.348-0.275-0.623-0.622-0.623c-0.34,0-0.616,0.275-0.616,0.623v22.445l-4.317,3.319l-0.869-6.565
	c-0.045-0.339-0.349-0.577-0.688-0.54c-0.338,0.046-0.577,0.358-0.541,0.697l0.963,7.278l-3.63,2.798l-4.462-16.678
	c-0.093-0.332-0.43-0.524-0.762-0.441c-0.331,0.091-0.523,0.431-0.441,0.761l4.602,17.175l-3.188,2.456l-4.291-10.343
	c-0.128-0.311-0.485-0.468-0.807-0.339c-0.311,0.128-0.466,0.496-0.329,0.807l4.408,10.654l-2.942,2.265l-8.12-14.064
	c-0.165-0.294-0.549-0.396-0.842-0.229c-0.293,0.175-0.396,0.549-0.23,0.843l8.204,14.211l-2.834,2.174l-7.697-10.039
	c-0.201-0.275-0.596-0.331-0.862-0.121c-0.274,0.212-0.331,0.597-0.119,0.871l7.698,10.042l-2.822,2.173l-11.585-11.6
	c-0.247-0.238-0.641-0.238-0.878,0c-0.237,0.249-0.237,0.632,0,0.881l11.473,11.479l-2.942,2.256l-9.146-7.023
	c-0.274-0.211-0.662-0.155-0.871,0.119c-0.21,0.267-0.157,0.659,0.119,0.861l8.881,6.832l-3.19,2.448l-15.369-8.876
	c-0.303-0.175-0.678-0.074-0.843,0.219c-0.175,0.304-0.074,0.68,0.22,0.854l14.782,8.528 M66.934,50.587L66.934,50.587
	l13.153-10.113l13.158,10.113H66.934L66.934,50.587z M95.271,50.587L95.271,50.587L80.508,39.235c-0.222-0.2-0.559-0.22-0.798-0.036
	l0.377,0.495l-0.377-0.486l-14.811,11.38h-8.182l23.37-17.972l23.379,17.972H95.271L95.271,50.587z M50.978,47.917L50.978,47.917
	c0.02-0.009,0.029-0.017,0.046-0.034l3.812-2.936c0.029-0.018,0.056-0.036,0.083-0.055l3.686-2.843l0.017-0.009l0.019-0.01
	l11.741-9.03c0.018-0.021,0.037-0.029,0.063-0.047l9.643-7.418l9.648,7.418c0.019,0.018,0.038,0.026,0.064,0.047l11.74,9.03
	l0.018,0.01l0.011,0.009l3.692,2.843c0.028,0.019,0.046,0.037,0.073,0.055l3.823,2.943c0.008,0.01,0.028,0.018,0.035,0.026
	l3.484,2.67h-7.176L80.508,31.369c-0.222-0.194-0.559-0.213-0.798-0.03L54.682,50.587h-7.175L50.978,47.917z"/>
<g>
	<line fill="#2A6496" x1="0.665" y1="50.741" x2="159.514" y2="50.741"/>
	<path fill="#2A6496" d="M159.514,51.126H0.665c-0.213,0-0.385-0.172-0.385-0.385c0-0.214,0.172-0.386,0.385-0.386h158.849
		c0.213,0,0.385,0.172,0.385,0.386C159.899,50.954,159.727,51.126,159.514,51.126z"/>
</g>
</svg>
