<?xml version="1.0" encoding="utf-8"?>
<!-- Generator: Adobe Illustrator 16.0.4, SVG Export Plug-In . SVG Version: 6.00 Build 0)  -->
<!DOCTYPE svg PUBLIC "-//W3C//DTD SVG 1.1//EN" "http://www.w3.org/Graphics/SVG/1.1/DTD/svg11.dtd">
<svg version="1.1" id="Layer_1" xmlns="http://www.w3.org/2000/svg" xmlns:xlink="http://www.w3.org/1999/xlink" x="0px" y="0px"
	 width="50px" height="26.535px" viewBox="0 0 50 26.535" enable-background="new 0 0 50 26.535" xml:space="preserve">
<g>
	<path fill="#FFFFFF" d="M25.413,14.81h9.246v1.582h-6.382c-0.48,0-0.871,0.391-0.871,0.871v8.403c0,0.479,0.391,0.869,0.871,0.869
		h13.852c0.48,0,0.871-0.391,0.871-0.869v-8.403c0-0.48-0.391-0.871-0.871-0.871h-6.382v-2.67H25.413v-3.579h6.38
		c0.481,0,0.871-0.389,0.871-0.87V0.87c0-0.48-0.39-0.87-0.871-0.87H17.942c-0.478,0-0.871,0.39-0.871,0.87v8.402
		c0,0.478,0.391,0.87,0.871,0.87h6.382v3.579h-10.67v2.67H7.87c-0.48,0-0.87,0.391-0.87,0.871v8.403c0,0.479,0.39,0.869,0.87,0.869
		h13.853c0.48,0,0.87-0.391,0.87-0.869v-8.403c0-0.478-0.39-0.871-0.87-0.871h-6.979V14.81h9.582H25.413z M21.691,17.293v8.339
		H7.902v-8.339H21.691z M42.097,25.632H28.309v-8.339h13.788V25.632z"/>
	<path fill="#502A51" d="M42.097,17.293"/>
</g>
</svg>
