<?xml version="1.0" encoding="utf-8"?>
<!-- Generator: Adobe Illustrator 16.0.4, SVG Export Plug-In . SVG Version: 6.00 Build 0)  -->
<!DOCTYPE svg PUBLIC "-//W3C//DTD SVG 1.1//EN" "http://www.w3.org/Graphics/SVG/1.1/DTD/svg11.dtd">
<svg version="1.1" id="Capa_1" xmlns="http://www.w3.org/2000/svg" xmlns:xlink="http://www.w3.org/1999/xlink" x="0px" y="0px"
	 width="32px" height="32px" viewBox="0 0 32 32" enable-background="new 0 0 32 32" xml:space="preserve">
<g>
	<g>
		<path fill="#FFFFFF" d="M16,32C7.177,32,0,24.822,0,16C0,7.177,7.177,0,16,0c8.822,0,16,7.177,16,16C32,24.822,24.822,32,16,32z
			 M16,1.085C7.776,1.085,1.085,7.776,1.085,16c0,8.224,6.691,14.915,14.915,14.915c8.225,0,14.915-6.691,14.915-14.915
			C30.915,7.776,24.224,1.085,16,1.085z"/>
		<path fill="#FFFFFF" d="M13.99,21.617c-0.138,0-0.277-0.052-0.383-0.159c-0.212-0.211-0.212-0.555,0-0.767l4.916-4.922
			l-4.916-4.921c-0.211-0.212-0.211-0.556,0-0.768c0.212-0.212,0.555-0.212,0.767,0l5.299,5.305c0.212,0.212,0.212,0.555,0,0.768
			l-5.299,5.304C14.269,21.565,14.13,21.617,13.99,21.617z"/>
	</g>
</g>
</svg>
