<?xml version="1.0" encoding="utf-8"?>
<!-- Generator: Adobe Illustrator 16.0.4, SVG Export Plug-In . SVG Version: 6.00 Build 0)  -->
<!DOCTYPE svg PUBLIC "-//W3C//DTD SVG 1.1//EN" "http://www.w3.org/Graphics/SVG/1.1/DTD/svg11.dtd">
<svg version="1.1" id="Capa_1" xmlns="http://www.w3.org/2000/svg" xmlns:xlink="http://www.w3.org/1999/xlink" x="0px" y="0px"
	 width="18.804px" height="18.001px" viewBox="75 0.641 18.804 18.001" enable-background="new 75 0.641 18.804 18.001"
	 xml:space="preserve">
<path fill="#267EC8" d="M93.571,8.089c0.207-0.181,0.284-0.468,0.197-0.728c-0.087-0.261-0.322-0.443-0.598-0.463L87.712,6.49
	c-0.254-0.02-0.475-0.177-0.574-0.41l-2.169-5.028c-0.108-0.251-0.357-0.414-0.633-0.411c-0.273,0.002-0.52,0.169-0.624,0.423
	l-2.074,5.067c-0.097,0.235-0.315,0.397-0.568,0.42L75.618,7.06c-0.272,0.026-0.504,0.212-0.587,0.474
	c-0.082,0.262,0.001,0.547,0.209,0.725l4.178,3.54c0.193,0.164,0.28,0.422,0.225,0.67l-1.201,5.342
	c-0.061,0.269,0.045,0.545,0.27,0.705c0.225,0.159,0.521,0.17,0.754,0.023l4.656-2.88c0.216-0.134,0.488-0.136,0.707-0.005
	l4.709,2.791c0.235,0.141,0.532,0.125,0.753-0.037c0.22-0.163,0.322-0.443,0.255-0.71l-1.298-5.319
	c-0.06-0.247,0.021-0.506,0.211-0.673L93.571,8.089z"/>
</svg>
