<?xml version="1.0" encoding="utf-8"?>
<!-- Generator: Adobe Illustrator 16.0.4, SVG Export Plug-In . SVG Version: 6.00 Build 0)  -->
<!DOCTYPE svg PUBLIC "-//W3C//DTD SVG 1.1 Tiny//EN" "http://www.w3.org/Graphics/SVG/1.1/DTD/svg11-tiny.dtd">
<svg version="1.1" baseProfile="tiny" id="Layer_1" xmlns="http://www.w3.org/2000/svg" xmlns:xlink="http://www.w3.org/1999/xlink"
	 x="0px" y="0px" width="60px" height="147px" viewBox="0 0 60 147" overflow="auto" xml:space="preserve">
<path d="M0.125,7.396C0.125,3.311,3.436,0,7.521,0h52.604v147H7.521c-4.085,0-7.396-2.919-7.396-7.004V7.396z"/>
<path fill="#FFFFFF" d="M43.951,73.613L19.645,49.079c-0.383-0.386-0.886-0.58-1.389-0.58c-0.498,0-0.996,0.189-1.378,0.567
	c-0.768,0.76-0.772,1.999-0.013,2.767l21.564,21.769L16.872,95.159c-0.764,0.764-0.764,2.003,0,2.767
	c0.765,0.766,2.003,0.766,2.767,0L43.951,73.613"/>
</svg>
