<?xml version="1.0" encoding="utf-8"?>
<!-- Generator: Adobe Illustrator 16.0.4, SVG Export Plug-In . SVG Version: 6.00 Build 0)  -->
<!DOCTYPE svg PUBLIC "-//W3C//DTD SVG 1.1//EN" "http://www.w3.org/Graphics/SVG/1.1/DTD/svg11.dtd">
<svg version="1.1" id="Capa_1" xmlns="http://www.w3.org/2000/svg" xmlns:xlink="http://www.w3.org/1999/xlink" x="0px" y="0px"
	 width="27.084px" height="22px" viewBox="75 2.815 27.084 22" enable-background="new 75 2.815 27.084 22" xml:space="preserve">
<g>
	<g>
		<path fill="#267EC8" d="M102.084,5.418c-0.996,0.442-2.065,0.742-3.188,0.875c1.146-0.687,2.024-1.777,2.44-3.072
			c-1.077,0.637-2.265,1.099-3.53,1.349c-1.015-1.082-2.455-1.755-4.055-1.755c-3.068,0-5.557,2.487-5.557,5.554
			c0,0.435,0.049,0.86,0.144,1.266c-4.616-0.232-8.71-2.444-11.45-5.805c-0.479,0.819-0.752,1.774-0.752,2.792
			c0,1.928,0.981,3.628,2.471,4.624c-0.91-0.03-1.768-0.281-2.517-0.697v0.069c0,2.69,1.916,4.937,4.456,5.448
			c-0.465,0.125-0.956,0.194-1.464,0.194c-0.358,0-0.706-0.036-1.046-0.104c0.708,2.208,2.759,3.813,5.189,3.858
			c-1.901,1.488-4.297,2.375-6.9,2.375c-0.448,0-0.891-0.027-1.325-0.076c2.459,1.578,5.378,2.5,8.517,2.5
			c10.219,0,15.807-8.467,15.807-15.809l-0.02-0.72C100.396,7.511,101.341,6.532,102.084,5.418z"/>
	</g>
</g>
</svg>
